Analiza niewypłacalności klientów
…
## 44 310     178.5
## 5   49     177.5
## 9   71     176.5
## 21 142     173.5
## 29 207     173.0
## 15 107     169.5
## 16 108     167.5
## 1   12     163.5
## 32 236     163.0
## 36 265     160.0
## 34 245     152.0
## 31 216     138.0
## 3   29     126.5

## # A tibble: 48 × 3
##    ID    stand_suma ranga_suma
##    <chr>      <dbl>      <dbl>
##  1 113        1           222.
##  2 330        0.980       236.
##  3 277        0.956       262.
##  4 91         0.953       250.
##  5 72         0.819       259 
##  6 68         0.709       218.
##  7 196        0.681       253 
##  8 63         0.666       252.
##  9 159        0.665       218.
## 10 307        0.658       199 
## # ℹ 38 more rows
…
Wstęp

Przeprowadzona analiza miała na celu podział zbioru danych na grupy
(klastry) przy użyciu różnych metod klasteryzacji, aby zidentyfikować,
która z metod najlepiej dopasowuje się do struktury danych. Skupiliśmy
się głównie na metodzie hierarchicznej z zastosowaniem metody
k-średnich, k-medoids praz algorytmu Warda.

Krok1 - dobór zmiennych

Załadowanie danych, sprawdzenie korelacji (<0,9) i współczynnika
zmienności(>0,1)

## # A tibble: 50 × 9
##       ID LIMIT_BAL EDUCATION MARRIAGE   AGE PAY_0 BILL_MEAN PAY_MEAN
##    <dbl>     <dbl>     <dbl>    <dbl> <dbl> <dbl>     <dbl>    <dbl>
##  1    12    260000         1        2    51    -1    14728.   11051.
##  2    22    120000         2        1    39    -1      316      263.
##  3    29     50000         3        1    47    -1     6701.    6594.
##  4    31    230000         1        2    27    -1    18958.   16248.
##  5    49    380000         2        2    32    -1    19136.   15555.
##  6    59    200000         1        2    34    -1     1124.     317.
##  7    63     50000         1        2    29     2    26279     1021.
##  8    68    210000         1        2    30     2     1432.    1533 
##  9    71     80000         1        2    31    -1      390      325 
## 10    72    320000         2        2    29     2    60359.    2300 
## # ℹ 40 more rows
## # ℹ 1 more variable: `default payment next month` <dbl>
…
